…
> race2_results <- analyze_race("Distance_C", 9,  2, 2025, "Davos", base_dir)
[1] "RMSE: 20.08"
[1] "MAE: 13.42"
[1] "MSE: 403.28"
[1] "RMSE: 25.54"
[1] "MAE: 22.49"
[1] "MSE: 652.45"

> # Analyze weekend results
> weekend_results <- analyze_weekend(2025, "Davos", base_dir)

> weekend_results
$men
# A tibble: 145 × 8
   Skier                   Nation        `Before Elo` `After Elo` `Elo Difference` `Predicted Points` `Total Points` `Points Difference`
   <chr>                   <chr>                <dbl>       <dbl>            <dbl>              <dbl>          <dbl>               <dbl>
 1 Harald Østberg Amundsen Norway               1774.       1856.           81.8                 85.2            256               171. 
 2 Martin Løwstrøm Nyenget Norway               1786.       1863.           77.0                 72.7            190               117. 
 3 Simen Hegstad Krüger    Norway               1727.       1819.           91.5                 44.1            180               136. 
 4 Johannes Høsflot Klæbo  Norway               1881.       1901.           20.1                157.             169                11.8
 5 Andreas Fjorden Ree     Norway               1609.       1732.          123.                  33.8            152               118. 
 6 Jan Thomas Jenssen      Norway               1670.       1757.           87.3                 NA              151                NA  
 7 Andrew Musgrave         Great Britain        1468.       1658.          190.                  32.2            135               103. 
 8 Gus Schumacher          USA                  1653.       1653.           -0.595               63.1            132                68.9
 9 Pål Golberg             Norway               1713.       1752.           39.6                 63.9            126                62.1
10 Friedrich Moch          Germany              1647.       1696.           48.6                 45.4            120                74.6
# ℹ 135 more rows
# ℹ Use `print(n = ...)` to see more rows

$ladies
# A tibble: 105 × 8
   Skier                    Nation  `Before Elo` `After Elo` `Elo Difference` `Predicted Points` `Total Points` `Points Difference`
   <chr>                    <chr>          <dbl>       <dbl>            <dbl>              <dbl>          <dbl>               <dbl>
 1 Jessie Diggins           USA            1694.       1775.             81.1              117.             239               122. 
 2 Victoria Carl            Germany        1691.       1758.             66.8               80.2            223               143. 
 3 Therese Johaug           Norway         1845.       1897.             52.8               82.4            200               118. 
 4 Heidi Weng               Norway         1733.       1809.             76.2               NA              190                NA  
 5 Jonna Sundling           Sweden         1784.       1826.             42.3               83.7            175                91.3
 6 Astrid Øyre Slind        Norway         1612.       1716.            104.                62.3            170               108. 
 7 Ebba Andersson           Sweden         1717.       1769.             52.7               NA              157                NA  
 8 Pia Fink                 Germany        1541.       1586.             45.1               32.7            152               119. 
 9 Katerina Janatova        Czechia        1470.       1526.             55.5               69.0            143                74.0
10 Kristin Austgulen Fosnæs Norway         1524.       1624.            100.                34.9            129                94.1
# ℹ 95 more rows
# ℹ Use `print(n = ...)` to see more rows
…
[1] "RMSE: 16.71"
[1] "MAE: 11.67"
[1] "MSE: 279.28"
[1] "RMSE: 22.19"
[1] "MAE: 15.56"
[1] "MSE: 492.43"
[1] "RMSE: 20.08"
[1] "MAE: 13.42"
[1] "MSE: 403.28"
[1] "RMSE: 25.54"
[1] "MAE: 22.49"
[1] "MSE: 652.45"
$men
# A tibble: 145 × 8
   Skier                   Nation        `Before Elo` `After Elo` `Elo Difference` `Predicted Points` `Total Points` `Points Difference`
   <chr>                   <chr>                <dbl>       <dbl>            <dbl>              <dbl>          <dbl>               <dbl>
 1 Harald Østberg Amundsen Norway               1774.       1856.           81.8                 85.2            256               171. 
 2 Martin Løwstrøm Nyenget Norway               1786.       1863.           77.0                 72.7            190               117. 
 3 Simen Hegstad Krüger    Norway               1727.       1819.           91.5                 44.1            180               136. 
 4 Johannes Høsflot Klæbo  Norway               1881.       1901.           20.1                157.             169                11.8
 5 Andreas Fjorden Ree     Norway               1609.       1732.          123.                  33.8            152               118. 
 6 Jan Thomas Jenssen      Norway               1670.       1757.           87.3                 NA              151                NA  
 7 Andrew Musgrave         Great Britain        1468.       1658.          190.                  32.2            135               103. 
 8 Gus Schumacher          USA                  1653.       1653.           -0.595               63.1            132                68.9
 9 Pål Golberg             Norway               1713.       1752.           39.6                 63.9            126                62.1
10 Friedrich Moch          Germany              1647.       1696.           48.6                 45.4            120                74.6
# ℹ 135 more rows
# ℹ Use `print(n = ...)` to see more rows

$ladies
# A tibble: 105 × 8
   Skier                    Nation  `Before Elo` `After Elo` `Elo Difference` `Predicted Points` `Total Points` `Points Difference`
   <chr>                    <chr>          <dbl>       <dbl>            <dbl>              <dbl>          <dbl>               <dbl>
 1 Jessie Diggins           USA            1694.       1775.             81.1              117.             239               122. 
 2 Victoria Carl            Germany        1691.       1758.             66.8               80.2            223               143. 
 3 Therese Johaug           Norway         1845.       1897.             52.8               82.4            200               118. 
 4 Heidi Weng               Norway         1733.       1809.             76.2               NA              190                NA  
 5 Jonna Sundling           Sweden         1784.       1826.             42.3               83.7            175                91.3
 6 Astrid Øyre Slind        Norway         1612.       1716.            104.                62.3            170               108. 
 7 Ebba Andersson           Sweden         1717.       1769.             52.7               NA              157                NA  
 8 Pia Fink                 Germany        1541.       1586.             45.1               32.7            152               119. 
 9 Katerina Janatova        Czechia        1470.       1526.             55.5               69.0            143                74.0
10 Kristin Austgulen Fosnæs Norway         1524.       1624.            100.                34.9            129                94.1
# ℹ 95 more rows
# ℹ Use `print(n = ...)` to see more rows
…
Processing Women's Stage Distance_F ...

Processing Women's WC Sprint_C ...

Processing Women's Stage Sprint_C ...

Processing Women's WC Sprint_F ...

Processing Women's Stage Sprint_F ...

Processing Men's Tour de Ski...

Processing Women's Tour de Ski...
# A tibble: 340 × 7
   Skier                  ID gender race_type wc_predicted_points stage_predicted_points tds_predicted_points
   <chr>               <int> <chr>  <chr>                   <dbl>                  <dbl>                <dbl>
 1 Adam Büki            8078 M      Distance                 -3.1                   -0.4                -85.9
 2 Adam Fellner         2162 M      Distance                 11.1                    1.5                 77.9
 3 Adam Konya           2259 M      Distance                 -1.8                   -0.1                -65.5
 4 Alayna Sonnesyn      1872 F      Distance                  9.1                    1.9                 46.9
 5 Albert Kuchler       8048 M      Distance                 25.2                    4.9                113. 
 6 Aleksander Holmboe  12900 M      Distance                 56.1                   21.3                 90.8
 7 Aleksi Parttimaa     5631 M      Distance                  7                      1.6                 56.7
 8 Alexander Ståhlberg 12449 M      Distance                  6.6                    1.5                 52.5
 9 Alvar Johannes Alev  1996 M      Distance                 27.6                    7.2                159. 
10 Alvar Myhlback      19652 M      Distance                  7.8                    1.2                 64.4
# ℹ 330 more rows
# ℹ Use `print(n = ...)` to see more rows
$M_WC_Distance
# A tibble: 203 × 7
   Skier                      ID wc_predicted_points gender race_type stage_predicted_points predicted_tds_points
   <chr>                   <int>           <dbl[1d]> <chr>  <chr>                      <dbl>                <dbl>
 1 Martin Løwstrøm Nyenget  2295                85.1 M      Distance                      NA                   NA
 2 Harald Østberg Amundsen  5449                83.9 M      Distance                      NA                   NA
 3 Johannes Høsflot Klæbo   5164                81.5 M      Distance                      NA                   NA
 4 Simen Hegstad Krüger     2355                74.8 M      Distance                      NA                   NA
 5 Iivo Niskanen            1470                70   M      Distance                      NA                   NA
 6 Andreas Fjorden Ree      8678                63.1 M      Distance                      NA                   NA
 7 Hugo Lapalus             6018                59.2 M      Distance                      NA                   NA
 8 Jan Thomas Jenssen       5406                59.2 M      Distance                      NA                   NA
 9 Pål Golberg                88                57.7 M      Distance                      NA                   NA
10 Erik Valnes              5923                57.1 M      Distance                      NA                   NA
# ℹ 193 more rows
# ℹ Use `print(n = ...)` to see more rows

$M_Stage_Distance
# A tibble: 203 × 7
   Skier                      ID stage_predicted_points gender race_type wc_predicted_points predicted_tds_points
   <chr>                   <int>              <dbl[1d]> <chr>  <chr>                   <dbl>                <dbl>
 1 Martin Løwstrøm Nyenget  2295                   40.2 M      Distance                   NA                   NA
 2 Harald Østberg Amundsen  5449                   39.5 M      Distance                   NA                   NA
 3 Johannes Høsflot Klæbo   5164                   38.3 M      Distance                   NA                   NA
 4 Simen Hegstad Krüger     2355                   34.2 M      Distance                   NA                   NA
 5 Iivo Niskanen            1470                   29.7 M      Distance                   NA                   NA
 6 Andreas Fjorden Ree      8678                   26.1 M      Distance                   NA                   NA
 7 Jan Thomas Jenssen       5406                   24.4 M      Distance                   NA                   NA
 8 Hugo Lapalus             6018                   23.7 M      Distance                   NA                   NA
 9 Pål Golberg                88                   23   M      Distance                   NA                   NA
10 Erik Valnes              5923                   22.8 M      Distance                   NA                   NA
# ℹ 193 more rows
# ℹ Use `print(n = ...)` to see more rows

$M_WC_Distance_C
# A tibble: 203 × 7
   Skier                      ID wc_predicted_points gender race_type  stage_predicted_points predicted_tds_points
   <chr>                   <int>           <dbl[1d]> <chr>  <chr>                       <dbl>                <dbl>
 1 Johannes Høsflot Klæbo   5164                87   M      Distance_C                     NA                   NA
 2 Martin Løwstrøm Nyenget  2295                83.2 M      Distance_C                     NA                   NA
 3 Iivo Niskanen            1470                76.1 M      Distance_C                     NA                   NA
 4 Harald Østberg Amundsen  5449                75   M      Distance_C                     NA                   NA
 5 Pål Golberg                88                64.1 M      Distance_C                     NA                   NA
 6 Erik Valnes              5923                62   M      Distance_C                     NA                   NA
 7 Simen Hegstad Krüger     2355                62   M      Distance_C                     NA                   NA
 8 Hugo Lapalus             6018                60.7 M      Distance_C                     NA                   NA
 9 Andreas Fjorden Ree      8678                56.8 M      Distance_C                     NA                   NA
10 Friedrich Moch           9323                53.6 M      Distance_C                     NA                   NA
# ℹ 193 more rows
# ℹ Use `print(n = ...)` to see more rows

$M_Stage_Distance_C
# A tibble: 203 × 7
   Skier                      ID stage_predicted_points gender race_type  wc_predicted_points predicted_tds_points
   <chr>                   <int>              <dbl[1d]> <chr>  <chr>                    <dbl>                <dbl>
 1 Johannes Høsflot Klæbo   5164                   41.8 M      Distance_C                  NA                   NA
 2 Martin Løwstrøm Nyenget  2295                   38.8 M      Distance_C                  NA                   NA
 3 Iivo Niskanen            1470                   33.6 M      Distance_C                  NA                   NA
 4 Harald Østberg Amundsen  5449                   33.2 M      Distance_C                  NA                   NA
 5 Pål Golberg                88                   26.7 M      Distance_C                  NA                   NA
 6 Simen Hegstad Krüger     2355                   26   M      Distance_C                  NA                   NA
 7 Erik Valnes              5923                   25.7 M      Distance_C                  NA                   NA
 8 Hugo Lapalus             6018                   24.1 M      Distance_C                  NA                   NA
 9 Andreas Fjorden Ree      8678                   21.9 M      Distance_C                  NA                   NA
10 William Poromaa         12573                   19.8 M      Distance_C                  NA                   NA
# ℹ 193 more rows
# ℹ Use `print(n = ...)` to see more rows

$M_WC_Distance_F
# A tibble: 203 × 7
   Skier                      ID wc_predicted_points gender race_type  stage_predicted_points predicted_tds_points
   <chr>                   <int>           <dbl[1d]> <chr>  <chr>                       <dbl>                <dbl>
 1 Harald Østberg Amundsen  5449                82.8 M      Distance_F                     NA                   NA
 2 Simen Hegstad Krüger     2355                82.3 M      Distance_F                     NA                   NA
 3 Martin Løwstrøm Nyenget  2295                78.7 M      Distance_F                     NA                   NA
 4 Johannes Høsflot Klæbo   5164                73.3 M      Distance_F                     NA                   NA
 5 Andreas Fjorden Ree      8678                69.4 M      Distance_F                     NA                   NA
 6 Iver Tildheim Andersen   8590                63.7 M      Distance_F                     NA                   NA
 7 Friedrich Moch           9323                62.8 M      Distance_F                     NA                   NA
 8 Jan Thomas Jenssen       5406                62.5 M      Distance_F                     NA                   NA
 9 Mika Vermeulen          12673                59   M      Distance_F                     NA                   NA
10 Iivo Niskanen            1470                55.6 M      Distance_F                     NA                   NA
# ℹ 193 more rows
# ℹ Use `print(n = ...)` to see more rows

$M_Stage_Distance_F
# A tibble: 203 × 7
   Skier                      ID stage_predicted_points gender race_type  wc_predicted_points predicted_tds_points
   <chr>                   <int>              <dbl[1d]> <chr>  <chr>                    <dbl>                <dbl>
 1 Simen Hegstad Krüger     2355                   40.3 M      Distance_F                  NA                   NA
 2 Martin Løwstrøm Nyenget  2295                   37.2 M      Distance_F                  NA                   NA
 3 Harald Østberg Amundsen  5449                   36.7 M      Distance_F                  NA                   NA
 4 Andreas Fjorden Ree      8678                   32.6 M      Distance_F                  NA                   NA
 5 Johannes Høsflot Klæbo   5164                   32.6 M      Distance_F                  NA                   NA
 6 Friedrich Moch           9323                   28.4 M      Distance_F                  NA                   NA
 7 Iver Tildheim Andersen   8590                   26.7 M      Distance_F                  NA                   NA
 8 Jan Thomas Jenssen       5406                   24.1 M      Distance_F                  NA                   NA
 9 Mika Vermeulen          12673                   23.9 M      Distance_F                  NA                   NA
10 Didrik Tønseth           1446                   22.2 M      Distance_F                  NA                   NA
# ℹ 193 more rows
# ℹ Use `print(n = ...)` to see more rows

$M_WC_Sprint_C
# A tibble: 203 × 7
   Skier                      ID wc_predicted_points gender race_type stage_predicted_points predicted_tds_points
   <chr>                   <int>           <dbl[1d]> <chr>  <chr>                      <dbl>                <dbl>
 1 Johannes Høsflot Klæbo   5164                81.8 M      Sprint_C                      NA                   NA
 2 Even Northug             3590                75.3 M      Sprint_C                      NA                   NA
 3 Erik Valnes              5923                73.4 M      Sprint_C                      NA                   NA
 4 Harald Østberg Amundsen  5449                63.4 M      Sprint_C                      NA                   NA
 5 Lucas Chanavat           3582                57.8 M      Sprint_C                      NA                   NA
 6 Pål Golberg                88                54.3 M      Sprint_C                      NA                   NA
 7 Lauri Vuorinen           2874                53.4 M      Sprint_C                      NA                   NA
 8 Oskar Opstad Vike       19279                52.1 M      Sprint_C                      NA                   NA
 9 Ansgar Evensen           8246                51.7 M      Sprint_C                      NA                   NA
10 Edvin Anger             14039                51.6 M      Sprint_C                      NA                   NA
# ℹ 193 more rows
# ℹ Use `print(n = ...)` to see more rows
…
